<?xml version="1.0" encoding="UTF-8" standalone="no"?>
<!-- Created with Inkscape (http://www.inkscape.org/) -->

<svg
   xmlns:dc="http://purl.org/dc/elements/1.1/"
   xmlns:cc="http://creativecommons.org/ns#"
   xmlns:rdf="http://www.w3.org/1999/02/22-rdf-syntax-ns#"
   xmlns:svg="http://www.w3.org/2000/svg"
   xmlns="http://www.w3.org/2000/svg"
   xmlns:xlink="http://www.w3.org/1999/xlink"
   xmlns:sodipodi="http://sodipodi.sourceforge.net/DTD/sodipodi-0.dtd"
   xmlns:inkscape="http://www.inkscape.org/namespaces/inkscape"
   width="320"
   height="320"
   viewBox="0 0 84.666665 84.666669"
   version="1.1"
   id="svg8"
   inkscape:version="0.92.4 (5da689c313, 2019-01-14)"
   sodipodi:docname="house.svg"
   inkscape:export-filename="E:\house.png"
   inkscape:export-xdpi="96"
   inkscape:export-ydpi="96">
  <defs
     id="defs2">
    <linearGradient
       inkscape:collect="always"
       id="linearGradient851">
      <stop
         style="stop-color:#00ffff;stop-opacity:1"
         offset="0"
         id="stop847" />
      <stop
         style="stop-color:#00bcff;stop-opacity:0.97989953"
         offset="1"
         id="stop849" />
    </linearGradient>
    <linearGradient
       inkscape:collect="always"
       xlink:href="#linearGradient851"
       id="linearGradient853"
       x1="43.183731"
       y1="296.14948"
       x2="43.183731"
       y2="212.1443"
       gradientUnits="userSpaceOnUse" />
  </defs>
  <sodipodi:namedview
     id="base"
     pagecolor="#ffffff"
     bordercolor="#666666"
     borderopacity="1.0"
     inkscape:pageopacity="0.0"
     inkscape:pageshadow="2"
     inkscape:zoom="1.4"
     inkscape:cx="205.00896"
     inkscape:cy="269.25293"
     inkscape:document-units="px"
     inkscape:current-layer="layer1"
     showgrid="false"
     inkscape:window-width="1920"
     inkscape:window-height="1017"
     inkscape:window-x="-8"
     inkscape:window-y="-8"
     inkscape:window-maximized="1"
     units="px" />
  <metadata
     id="metadata5">
    <rdf:RDF>
      <cc:Work
         rdf:about="">
        <dc:format>image/svg+xml</dc:format>
        <dc:type
           rdf:resource="http://purl.org/dc/dcmitype/StillImage" />
        <dc:title></dc:title>
      </cc:Work>
    </rdf:RDF>
  </metadata>
  <g
     inkscape:label="Layer 1"
     inkscape:groupmode="layer"
     id="layer1"
     transform="translate(0,-212.33332)">
    <path
       id="path820"
       style="opacity:1;fill:none;fill-opacity:1;stroke:url(#linearGradient853);stroke-width:12.25453663;stroke-linecap:butt;stroke-linejoin:round;stroke-miterlimit:4;stroke-dasharray:none;stroke-opacity:1"
       d="M 38.128257,240.76042 A 16.000494,14.715865 0 0 1 22.127761,255.47629 16.000494,14.715865 0 0 1 6.1272687,240.76042 16.000494,14.715865 0 0 1 22.127761,226.04456 16.000494,14.715865 0 0 1 38.128257,240.76042 Z M 34.31771,218.45898 49.256839,258.27797 H 16.059751 v 32.59476 h 47.541403 v -32.59476 h 14.939132 z m 4.52042,48.7652 h 17.845242 v 17.93116 H 38.83813 Z"
       inkscape:connector-curvature="0"
       inkscape:export-xdpi="96"
       inkscape:export-ydpi="96" />
    <path
       inkscape:connector-curvature="0"
       id="path820-9"
       style="opacity:1;fill:#ffffff;fill-opacity:1;stroke:none;stroke-width:6.12726831;stroke-linecap:butt;stroke-linejoin:miter;stroke-miterlimit:4;stroke-dasharray:none;stroke-opacity:1"
       d="m 38.128258,240.76042 c 3e-6,8.12735 -7.163664,14.71587 -16.000496,14.71587 -8.83683,0 -16.0004953,-6.58852 -16.0004923,-14.71587 3e-6,-8.12735 7.1636663,-14.71586 16.0004923,-14.71586 8.836827,0 16.000493,6.58851 16.000496,14.71586 z M 34.317711,218.45898 49.25684,258.27797 H 16.059752 v 32.59476 h 47.541403 v -32.59476 h 14.939131 z"
       inkscape:export-xdpi="96"
       inkscape:export-ydpi="96"
       sodipodi:nodetypes="ssssscccccccc" />
  </g>
</svg>
